Cyclistic bike-share analysis case study
…
clean_names

clean_names(annualtrip)

## # A tibble: 4,731,081 x 13
##    ride_id          rideable_type started_at          ended_at           
##    <chr>            <chr>         <dttm>              <dttm>             
##  1 322BD23D287743ED docked_bike   2020-08-20 18:08:14 2020-08-20 18:17:51
##  2 2A3AEF1AB9054D8B electric_bike 2020-08-27 18:46:04 2020-08-27 19:54:51
##  3 67DC1D133E8B5816 electric_bike 2020-08-26 19:44:14 2020-08-26 21:53:07
##  4 C79FBBD412E578A7 electric_bike 2020-08-27 12:05:41 2020-08-27 12:53:45
##  5 13814D3D661ECADB electric_bike 2020-08-27 16:49:02 2020-08-27 16:59:49
##  6 56349A5A42F0AE51 electric_bike 2020-08-27 17:26:23 2020-08-27 18:07:50
##  7 EB6ABC5570C29B22 electric_bike 2020-08-26 20:14:02 2020-08-26 20:34:00
##  8 B4ECE389A1DE922D electric_bike 2020-08-26 21:59:50 2020-08-26 22:12:35
##  9 0B355B0FE076D010 electric_bike 2020-08-26 19:17:42 2020-08-26 19:32:14
## 10 1ECE04F779E9FDF6 electric_bike 2020-08-27 15:13:57 2020-08-27 15:41:59
## # ... with 4,731,071 more rows, and 9 more variables: start_station_name <chr>,
## #   start_station_id <chr>, end_station_name <chr>, end_station_id <chr>,
## #   start_lat <dbl>, start_lng <dbl>, end_lat <dbl>, end_lng <dbl>,
## #   member_casual <chr>
…
 t<- annualtrip %>% select(started_at,ended_at) %>%  filter(started_at > ended_at) %>% count()
  ## clean data where  all end > start
  annualtrip<- annualtrip %>%  filter(started_at < ended_at)

6.5- start station

another constraint start end station name there are 738 station but that is over time stations changed to make better service for customers but in my opinion a good way to have a separate table for station (id,name,avg traffic/day,lng,lat,validfrom,validto) so that better integrity and data quality there are null values because user can park anywhere!!??

inconsistent data

  annualtrip %>% distinct(start_station_id)      #  1288

## # A tibble: 1,288 x 1
##    start_station_id
##    <chr>           
##  1 327             
##  2 150             
##  3 128             
##  4 402             
##  5 190             
##  6 199             
##  7 54              
##  8 181             
##  9 288             
## 10 141             
## # ... with 1,278 more rows

  annualtrip %>% count(is.na(start_station_id))  # 369749 are null

## # A tibble: 2 x 2
##   `is.na(start_station_id)`       n
##   <lgl>                       <int>
## 1 FALSE                     4348413
## 2 TRUE                       369386

  annualtrip %>% distinct(start_station_name) %>% drop_na()      #  738

## # A tibble: 738 x 1
##    start_station_name            
##    <chr>                         
##  1 Sheffield Ave & Webster Ave   
##  2 Fort Dearborn Dr & 31st St    
##  3 Damen Ave & Chicago Ave       
##  4 Shields Ave & 31st St         
##  5 Southport Ave & Wrightwood Ave
##  6 Wabash Ave & Grand Ave        
##  7 Ogden Ave & Chicago Ave       
##  8 LaSalle St & Illinois St      
##  9 Larrabee St & Armitage Ave    
## 10 Clark St & Lincoln Ave        
## # ... with 728 more rows
 temp <- annualtrip %>% distinct(trimws(tolower(start_station_name)))  #  739

  annualtrip %>% count(is.na(start_station_name))  # 369127      are null

## # A tibble: 2 x 2
##   `is.na(start_station_name)`       n
##   <lgl>                         <int>
## 1 FALSE                       4349035
## 2 TRUE                         368764

6.6- end stations

  annualtrip %>% distinct(end_station_id)      #  1287

## # A tibble: 1,287 x 1
##    end_station_id
##    <chr>         
##  1 302           
##  2 150           
##  3 622           
##  4 237           
##  5 313           
##  6 17            
##  7 128           
##  8 199           
##  9 115           
## 10 220           
## # ... with 1,277 more rows

  annualtrip %>% count(is.na(end_station_id))  # 407425  are null

## # A tibble: 2 x 2
##   `is.na(end_station_id)`       n
##   <lgl>                     <int>
## 1 FALSE                   4310813
## 2 TRUE                     406986

  annualtrip %>% distinct(end_station_name)      #  736

## # A tibble: 736 x 1
##    end_station_name              
##    <chr>                         
##  1 Sheffield Ave & Wrightwood Ave
##  2 Fort Dearborn Dr & 31st St    
##  3 California Ave & Cortez St    
##  4 MLK Jr Dr & 29th St           
##  5 Lakeview Ave & Fullerton Pkwy 
##  6 Honore St & Division St       
##  7 Damen Ave & Chicago Ave       
##  8 Wabash Ave & Grand Ave        
##  9 Sheffield Ave & Wellington Ave
## 10 Clark St & Drummond Pl        
## # ... with 726 more rows

  annualtrip %>% count(is.na(end_station_name))  # 406966        are null

## # A tibble: 2 x 2
##   `is.na(end_station_name)`       n
##   <lgl>                       <int>
## 1 FALSE                     4311272
## 2 TRUE                       406527

we can do enrichment to closet station when value is null this is big question enrichment to actual stations that is in last week when we process more data we have more 10000 station but we are interest in is only actual stations ,its important to enrich for this stations

 annualtrip %>% filter(started_at > as.POSIXct("2021-07-01")) %>% drop_na() %>%     group_by(start_station_name) %>% count()   # 711 stations in the last month

## # A tibble: 711 x 2
## # Groups:   start_station_name [711]
##    start_station_name             n
##    <chr>                      <int>
##  1 2112 W Peterson Ave          133
##  2 63rd St Beach                278
##  3 900 W Harrison St            833
##  4 Aberdeen St & Jackson Blvd  1539
##  5 Aberdeen St & Monroe St     1456
##  6 Aberdeen St & Randolph St   1453
##  7 Ada St & 113th St              6
##  8 Ada St & Washington Blvd    1237
##  9 Adler Planetarium           2563
## 10 Albany Ave & 26th St          28
## # ... with 701 more rows
…
